module github.com/owncast/owncast

go 1.17

require (
	github.com/amalfra/etag v1.0.0
	github.com/aws/aws-sdk-go v1.44.69
	github.com/go-fed/activity v1.0.1-0.20210803212804-d866ba75dd0f
	github.com/go-fed/httpsig v1.1.0
	github.com/go-ole/go-ole v1.2.6 // indirect
	github.com/gorilla/websocket v1.5.0
	github.com/grafov/m3u8 v0.11.1
	github.com/lestrrat-go/file-rotatelogs v2.4.0+incompatible
	github.com/mattn/go-sqlite3 v1.14.14
	github.com/microcosm-cc/bluemonday v1.0.19
	github.com/mssola/user_agent v0.5.3
	github.com/nareix/joy5 v0.0.0-20210317075623-2c912ca30590
	github.com/oschwald/geoip2-golang v1.7.0
	github.com/rifflock/lfshook v0.0.0-20180920164130-b9218ef580f5
	github.com/schollz/sqlite3dump v1.3.1
	github.com/sirupsen/logrus v1.9.0
	github.com/teris-io/shortid v0.0.0-20220617161101-71ec9f2aa569
	github.com/yuin/goldmark v1.4.13
	golang.org/x/mod v0.6.0-dev.0.20220419223038-86c51ed26bb4
	golang.org/x/time v0.0.0-20220722155302-e5dcc9cfc0b9
	mvdan.cc/xurls v1.1.0
)

require (
	github.com/jonboulle/clockwork v0.2.2 // indirect
	github.com/lestrrat-go/strftime v1.0.4 // indirect
	github.com/mvdan/xurls v1.1.0 // indirect
	github.com/pkg/errors v0.9.1
	github.com/tklauser/go-sysconf v0.3.10 // indirect
	github.com/tklauser/numcpus v0.4.0 // indirect
	github.com/yusufpapurcu/wmi v1.2.2 // indirect
	golang.org/x/crypto v0.0.0-20211215153901-e495a2d5b3d3 // indirect
	golang.org/x/net v0.0.0-20220802222814-0bcc04d9c69b
	golang.org/x/sys v0.0.0-20220728004956-3c1f35247d10 // indirect
)

require github.com/prometheus/client_golang v1.12.2

require (
	cloud.google.com/go v0.101.0 // indirect
	cloud.google.com/go/compute v1.6.1 // indirect
	cloud.google.com/go/iam v0.3.0 // indirect
	cloud.google.com/go/storage v1.22.0 // indirect
	github.com/Azure/azure-pipeline-go v0.2.3 // indirect
	github.com/Azure/azure-storage-blob-go v0.14.0 // indirect
	github.com/Azure/go-autorest v14.2.0+incompatible // indirect
	github.com/Azure/go-autorest/autorest v0.11.20 // indirect
	github.com/Azure/go-autorest/autorest/adal v0.9.15 // indirect
	github.com/Azure/go-autorest/autorest/date v0.3.0 // indirect
	github.com/Azure/go-autorest/logger v0.2.1 // indirect
	github.com/Azure/go-autorest/tracing v0.6.0 // indirect
	github.com/BurntSushi/locker v0.0.0-20171006230638-a6e239ea1c69 // indirect
	github.com/PuerkitoBio/purell v1.1.1 // indirect
	github.com/PuerkitoBio/urlesc v0.0.0-20170810143723-de5bf2ad4578 // indirect
	github.com/alecthomas/chroma/v2 v2.2.0 // indirect
	github.com/armon/go-radix v1.0.0 // indirect
	github.com/aws/aws-sdk-go-v2 v1.9.0 // indirect
	github.com/aws/aws-sdk-go-v2/config v1.7.0 // indirect
	github.com/aws/aws-sdk-go-v2/credentials v1.4.0 // indirect
	github.com/aws/aws-sdk-go-v2/feature/ec2/imds v1.5.0 // indirect
	github.com/aws/aws-sdk-go-v2/internal/ini v1.2.2 // indirect
	github.com/aws/aws-sdk-go-v2/service/internal/presigned-url v1.3.0 // indirect
	github.com/aws/aws-sdk-go-v2/service/sso v1.4.0 // indirect
	github.com/aws/aws-sdk-go-v2/service/sts v1.7.0 // indirect
	github.com/aws/smithy-go v1.8.0 // indirect
	github.com/beorn7/perks v1.0.1 // indirect
	github.com/bep/clock v0.3.0 // indirect
	github.com/bep/debounce v1.2.0 // indirect
	github.com/bep/gitmap v1.1.2 // indirect
	github.com/bep/goat v0.5.0 // indirect
	github.com/bep/godartsass v0.14.0 // indirect
	github.com/bep/golibsass v1.1.0 // indirect
	github.com/bep/gowebp v0.1.0 // indirect
	github.com/bep/overlayfs v0.6.0 // indirect
	github.com/bep/tmc v0.5.1 // indirect
	github.com/cespare/xxhash/v2 v2.1.2 // indirect
	github.com/clbanning/mxj/v2 v2.5.6 // indirect
	github.com/cli/safeexec v1.0.0 // indirect
	github.com/cpuguy83/go-md2man/v2 v2.0.1 // indirect
	github.com/disintegration/gift v1.2.1 // indirect
	github.com/dlclark/regexp2 v1.4.0 // indirect
	github.com/dustin/go-humanize v1.0.0 // indirect
	github.com/evanw/esbuild v0.14.43 // indirect
	github.com/frankban/quicktest v1.14.3 // indirect
	github.com/fsnotify/fsnotify v1.5.4 // indirect
	github.com/getkin/kin-openapi v0.97.0 // indirect
	github.com/ghodss/yaml v1.0.0 // indirect
	github.com/go-openapi/jsonpointer v0.19.5 // indirect
	github.com/go-openapi/swag v0.19.5 // indirect
	github.com/gobuffalo/flect v0.2.5 // indirect
	github.com/gobwas/glob v0.2.3 // indirect
	github.com/gohugoio/go-i18n/v2 v2.1.3-0.20210430103248-4c28c89f8013 // indirect
	github.com/gohugoio/locales v0.14.0 // indirect
	github.com/gohugoio/localescompressed v1.0.1 // indirect
	github.com/golang-jwt/jwt/v4 v4.0.0 // indirect
	github.com/golang/groupcache v0.0.0-20210331224755-41bb18bfe9da // indirect
	github.com/golang/protobuf v1.5.2 // indirect
	github.com/google/go-cmp v0.5.8 // indirect
	github.com/google/uuid v1.3.0 // indirect
	github.com/google/wire v0.5.0 // indirect
	github.com/googleapis/gax-go/v2 v2.3.0 // indirect
	github.com/googleapis/go-type-adapters v1.0.0 // indirect
	github.com/hairyhenderson/go-codeowners v0.2.3-0.20201026200250-cdc7c0759690 // indirect
	github.com/inconshreveable/mousetrap v1.0.0 // indirect
	github.com/invopop/yaml v0.1.0 // indirect
	github.com/jdkato/prose v1.2.1 // indirect
	github.com/kr/pretty v0.3.0 // indirect
	github.com/kr/text v0.2.0 // indirect
	github.com/kyokomi/emoji/v2 v2.2.9 // indirect
	github.com/lufia/plan9stats v0.0.0-20211012122336-39d0f177ccd0 // indirect
	github.com/mailru/easyjson v0.0.0-20190626092158-b2ccc519800e // indirect
	github.com/mattn/go-ieproxy v0.0.1 // indirect
	github.com/mattn/go-isatty v0.0.14 // indirect
	github.com/mattn/go-runewidth v0.0.9 // indirect
	github.com/matttproud/golang_protobuf_extensions v1.0.1 // indirect
	github.com/mitchellh/hashstructure v1.1.0 // indirect
	github.com/mitchellh/mapstructure v1.5.0 // indirect
	github.com/muesli/smartcrop v0.3.0 // indirect
	github.com/niklasfasching/go-org v1.6.5 // indirect
	github.com/olekukonko/tablewriter v0.0.5 // indirect
	github.com/pelletier/go-toml/v2 v2.0.2 // indirect
	github.com/power-devops/perfstat v0.0.0-20210106213030-5aafc221ea8c // indirect
	github.com/prometheus/client_model v0.2.0 // indirect
	github.com/prometheus/common v0.32.1 // indirect
	github.com/prometheus/procfs v0.7.3 // indirect
	github.com/rogpeppe/go-internal v1.8.1 // indirect
	github.com/russross/blackfriday/v2 v2.1.0 // indirect
	github.com/rwcarlsen/goexif v0.0.0-20190401172101-9e8deecbddbd // indirect
	github.com/sanity-io/litter v1.5.5 // indirect
	github.com/spf13/afero v1.8.2 // indirect
	github.com/spf13/cast v1.5.0 // indirect
	github.com/spf13/cobra v1.4.0 // indirect
	github.com/spf13/fsync v0.9.0 // indirect
	github.com/spf13/jwalterweatherman v1.1.0 // indirect
	github.com/spf13/pflag v1.0.5 // indirect
	github.com/tdewolff/minify/v2 v2.11.10 // indirect
	github.com/tdewolff/parse/v2 v2.6.0 // indirect
	go.opencensus.io v0.23.0 // indirect
	go.uber.org/atomic v1.9.0 // indirect
	gocloud.dev v0.24.0 // indirect
	golang.org/x/image v0.0.0-20211028202545-6944b10bf410 // indirect
	golang.org/x/oauth2 v0.0.0-20220411215720-9780585627b5 // indirect
	golang.org/x/sync v0.0.0-20210220032951-036812b2e83c // indirect
	golang.org/x/text v0.3.7 // indirect
	golang.org/x/tools v0.1.11 // indirect
	golang.org/x/xerrors v0.0.0-20220411194840-2f41105eb62f // indirect
	google.golang.org/api v0.76.0 // indirect
	google.golang.org/appengine v1.6.7 // indirect
	google.golang.org/genproto v0.0.0-20220426171045-31bebdecfb46 // indirect
	google.golang.org/grpc v1.46.0 // indirect
	google.golang.org/protobuf v1.28.0 // indirect
	gopkg.in/yaml.v2 v2.4.0 // indirect
	gopkg.in/yaml.v3 v3.0.1 // indirect
)

require (
	github.com/nakabonne/tstorage v0.3.5
	github.com/shirou/gopsutil/v3 v3.22.7
)

require github.com/SherClockHolmes/webpush-go v1.2.0

require (
	github.com/aymerick/douceur v0.2.0 // indirect
	github.com/dghubble/oauth1 v0.7.1
	github.com/g8rswimmer/go-twitter v1.1.5-0.20220129031223-e62b74626b0a
	github.com/go-test/deep v1.0.4 // indirect
	github.com/golang-jwt/jwt v3.2.2+incompatible // indirect
	github.com/gorilla/css v1.0.0 // indirect
	github.com/jmespath/go-jmespath v0.4.0 // indirect
	github.com/oschwald/maxminddb-golang v1.9.0 // indirect
)

require (
	github.com/andybalholm/cascadia v1.3.1
	github.com/gohugoio/hugo v0.101.0
	github.com/otiai10/copy v1.7.0
)

replace github.com/go-fed/activity => github.com/owncast/activity v1.0.1-0.20211229051252-7821289d4026
